# This file uses centimeters as units for non-parametric coordinates.

mtllib BOTW - Hideout Object.mtl
g default
v 0.214433 -0.000001 -0.069674
v 0.182408 -0.000001 -0.132527
v 0.132527 -0.000002 -0.182408
v 0.069674 0.000002 -0.214431
v 0.000002 0.000002 -0.225468
v -0.069674 -0.000001 -0.214435
v -0.132529 -0.000001 -0.182408
v -0.182408 0.000000 -0.132528
v -0.214434 0.000000 -0.069674
v -0.225467 0.000000 -0.000001
v -0.214434 -0.000001 0.069674
v -0.182407 -0.000001 0.132526
v -0.132528 -0.000000 0.182406
v -0.069672 -0.000000 0.214431
v -0.000000 0.000000 0.225468
v 0.069674 -0.000001 0.214431
v 0.132526 -0.000001 0.182408
v 0.182408 -0.000001 0.132526
v 0.214432 -0.000001 0.069674
v 0.225467 -0.000002 -0.000001
v 0.214433 2.020729 -0.069674
v 0.182407 2.020729 -0.132526
v 0.132526 2.020725 -0.182408
v 0.069672 2.020727 -0.214433
v 0.000000 2.020726 -0.225469
v -0.069675 2.020726 -0.214433
v -0.132527 2.020727 -0.182408
v -0.182406 2.020727 -0.132526
v -0.214433 2.020729 -0.069672
v -0.225466 2.020729 -0.000000
v -0.214433 2.020727 0.069674
v -0.182408 2.020727 0.132525
v -0.132526 2.020728 0.182408
v -0.069674 2.020728 0.214431
v 0.000000 2.020727 0.225468
v 0.069674 2.020727 0.214434
v 0.132527 2.020725 0.182407
v 0.182407 2.020725 0.132527
v 0.214432 2.020727 0.069675
v 0.225468 2.020727 0.000000
v 0.000001 0.000000 -0.000003
v -0.000000 2.020727 -0.000000
v 2.683695 6.309742 -8.259565
v -0.000000 6.309742 -8.684620
v -0.000000 7.590623 -7.590634
v 2.345636 7.590623 -7.219121
v -8.684619 6.309742 0.000000
v -8.259564 6.309742 2.683694
v -7.219120 7.590623 2.345635
v -7.590625 7.590623 0.000000
v -2.345636 7.590623 -7.219121
v -1.949818 8.684617 -6.000923
v -0.000000 8.684617 -6.309744
v -7.219120 7.590623 -2.345635
v -6.309743 8.684617 0.000000
v -6.000923 8.684617 -1.949818
v -8.684619 -0.000000 6.309743
v -6.309743 -0.000000 8.684617
v -6.232056 1.679287 8.577689
v -8.577690 1.679287 6.232056
v 8.684621 -0.000000 -6.309744
v 6.309744 -0.000000 -8.684622
v 6.232058 1.679287 -8.577692
v 8.577693 1.679287 -6.232058
v -3.708773 8.684617 -5.104692
v -5.104692 8.684617 -3.708771
v -3.942731 9.564745 -2.864563
v -2.864563 9.564745 -3.942731
v 5.622025 4.873482 -7.738049
v 2.955671 4.873482 -9.096619
v 5.104692 6.309742 -7.026001
v -9.096617 4.873482 2.955670
v -7.738047 4.873482 5.622023
v -7.026000 6.309742 5.104691
v -1.505991 9.564745 -4.634961
v -4.634960 9.564745 -1.505989
v 1.949818 8.684617 -6.000923
v -6.000923 8.684617 1.949818
v -6.000923 3.317225 8.259562
v -8.259564 3.317225 6.000923
v 6.000924 3.317225 -8.259566
v 8.259566 3.317225 -6.000924
v -0.000000 9.564745 -4.873483
v -4.873483 9.564745 0.000000
v 4.461664 7.590623 -6.140950
v -6.140948 7.590623 4.461663
v -5.622023 4.873482 7.738046
v 7.738050 4.873482 -5.622025
v -2.683695 10.209378 -1.949818
v -1.949818 10.209378 -2.683695
v -1.025080 10.209378 -3.154872
v -3.154871 10.209378 -1.025080
v 1.505991 9.564745 -4.634961
v -4.634960 9.564745 1.505989
v -0.987062 10.602612 -1.358574
v -1.358573 10.602612 -0.987061
v -0.000000 10.734776 0.000000
v 3.708776 8.684617 -5.104692
v -5.104691 8.684617 3.708770
v -0.518929 10.602612 -1.597098
v -1.597098 10.602612 -0.518928
v -0.000000 10.209378 -3.317227
v -3.317226 10.209378 0.000000
v -0.000000 10.602612 -1.679288
v -1.679288 10.602612 0.000000
v 10.209384 -0.000000 -3.317227
v 10.083690 1.679287 -3.276388
v 0.518929 10.602612 -1.597098
v -1.597098 10.602612 0.518929
v -5.104691 6.309742 7.026000
v 7.026002 6.309742 -5.104692
v 0.987061 10.602612 -1.358574
v -1.358573 10.602612 0.987061
v -0.987061 10.602612 1.358573
v 1.358574 10.602612 -0.987061
v -0.518929 10.602612 1.597098
v 1.597099 10.602612 -0.518929
v -0.000000 10.602612 1.679288
v 1.679287 10.602612 0.000000
v 1.025080 10.209378 -3.154872
v -3.154871 10.209378 1.025080
v -5.280380 -0.000000 9.209102
v -5.219292 0.865488 9.164724
v -5.019000 1.679287 9.195771
v 1.597098 10.602612 0.518929
v 0.518928 10.602612 1.597098
v 2.864563 9.564745 -3.942732
v -3.942731 9.564745 2.864562
v 0.987061 10.602612 1.358573
v 1.358573 10.602612 0.987061
v -4.461663 7.590623 6.140947
v 6.140950 7.590623 -4.461664
v 9.709698 3.317225 -3.154872
v -4.142844 3.251977 9.223662
v -4.071357 3.317225 9.242723
v 1.949818 10.209375 -2.683695
v -2.683694 10.209375 1.949818
v -3.708770 8.684620 5.104691
v 5.104692 8.684620 -3.708769
v 5.280378 -0.000003 9.209102
v 6.309743 -0.000003 8.684617
v 9.096618 4.873484 -2.955671
v -2.864563 9.564747 3.942731
v 3.942732 9.564747 -2.864563
v -2.955669 4.873481 9.096616
v -2.683694 6.309741 8.259562
v 8.259565 6.309744 -2.683695
v 10.734777 -0.000001 0.000000
v 10.602612 1.679286 0.000000
v -1.949818 10.209378 2.683694
v 2.683696 10.209378 -1.949818
v -2.345634 7.590623 7.219121
v 7.219121 7.590623 -2.345637
v 10.209378 3.317225 0.000000
v -1.949818 8.684617 6.000922
v 6.000924 8.684616 -1.949817
v -1.025081 10.209378 3.154871
v 3.154873 10.209378 -1.025082
v -1.505992 9.564745 4.634961
v 4.634963 9.564745 -1.505992
v 9.564745 4.873481 0.000002
v 0.000001 10.209378 3.317227
v 3.317226 10.209378 -0.000000
v 10.209378 -0.000003 3.317229
v 10.083687 1.679287 3.276385
v 8.684614 6.309742 0.000001
v 3.154873 10.209375 1.025081
v 1.025079 10.209378 3.154871
v 0.000000 9.564745 4.873483
v 4.873481 9.564745 -0.000000
v -0.000001 6.309741 8.684617
v -0.000001 7.590623 7.590622
v 7.590623 7.590623 0.000000
v -0.000002 8.684617 6.309743
v 6.309742 8.684617 0.000001
v 1.949817 10.209378 2.683695
v 2.683695 10.209378 1.949818
v 9.709687 3.317228 3.154870
v 4.634959 9.564747 1.505992
v 1.505989 9.564747 4.634961
v 8.684616 0.000000 6.309741
v 8.577688 1.679287 6.232057
v 9.096617 4.873482 2.955670
v 2.864562 9.564747 3.942730
v 3.942731 9.564747 2.864561
v 6.000922 8.684616 1.949817
v 1.949817 8.684616 6.000922
v 6.232055 1.679289 8.577688
v 8.259562 6.309744 2.683694
v 7.219120 7.590621 2.345634
v 2.345634 7.590622 7.219120
v 2.683693 6.309741 8.259562
v 8.259562 3.317228 6.000922
v 5.104689 8.684620 3.708770
v 3.708770 8.684619 5.104689
v 6.000921 3.317226 8.259562
v 7.738045 4.873484 5.622023
v 6.140948 7.590625 4.461662
v 4.461662 7.590623 6.140946
v -2.005892 4.873482 9.247046
v -3.037665 4.232903 9.348968
v -2.750306 4.475962 9.293802
v -2.253741 4.761645 9.254125
v 2.955668 4.873479 9.096615
v 5.622023 4.873484 7.738047
v 5.104689 6.309744 7.025999
v 7.025999 6.309744 5.104690
v -5.012456 1.709668 9.191025
v -4.705477 2.468167 9.145579
v -4.686431 2.511747 9.143685
v -3.498611 3.912135 9.261389
v 5.018999 1.679289 9.195771
v 5.219292 0.865488 9.164716
v 4.705467 2.468180 9.145578
v 5.012456 1.709663 9.191020
v 3.037666 4.232901 9.348967
v 2.005895 4.873482 9.247046
v 2.253740 4.761650 9.254124
v 2.750305 4.475962 9.293803
v 4.071357 3.317224 9.242723
v 4.142845 3.251976 9.223662
v 4.686430 2.511747 9.143685
v 3.498610 3.912135 9.261389
v -1.894824 4.929576 9.230269
v -1.157051 5.154598 9.209230
v -0.528499 5.261560 9.243236
v 0.000000 5.261561 9.326941
v -0.000000 5.261561 9.326940
v 0.528497 5.261559 9.243233
v 1.157052 5.154595 9.209230
v 1.894822 4.929574 9.230270
v -9.709690 3.317226 3.154871
v 3.154872 3.317226 -9.709690
v -6.140947 7.590622 -4.461662
v -4.461664 7.590622 -6.140948
v -9.564757 4.873482 -0.000005
v -0.000002 4.873482 -9.564761
v -10.083689 1.679286 3.276387
v 3.276384 1.679287 -10.083689
v -8.259563 6.309742 -2.683693
v -2.683695 6.309742 -8.259565
v -10.209383 -0.000001 3.317225
v 3.317226 -0.000001 -10.209383
v -7.026000 6.309742 -5.104692
v -5.104692 6.309740 -7.026000
v -10.209383 3.317223 -0.000000
v -0.000003 3.317225 -10.209383
v -9.096615 4.873482 -2.955670
v -2.955670 4.873482 -9.096619
v -10.602613 1.679287 0.000001
v 0.000001 1.679289 -10.602616
v -7.738049 4.873484 -5.622023
v -5.622023 4.873482 -7.738047
v -9.709688 3.317224 -3.154871
v -3.154873 3.317224 -9.709688
v -10.734778 0.000001 -0.000000
v 0.000000 0.000001 -10.734780
v -8.259565 3.317224 -6.000923
v -6.000923 3.317224 -8.259565
v -10.083688 1.679287 -3.276385
v -3.276387 1.679287 -10.083688
v -10.209383 0.000001 -3.317226
v -3.317227 -0.000000 -10.209383
v -8.577688 1.679286 -6.232056
v -6.232057 1.679284 -8.577691
v -8.684620 0.000001 -6.309743
v -6.309744 0.000001 -8.684621
v 2.683695 6.309742 -8.259565
v -0.000000 6.309742 -8.684620
v -0.000000 7.590623 -7.590634
v 2.345636 7.590623 -7.219121
v -8.684619 6.309742 0.000000
v -8.259564 6.309742 2.683694
v -7.219120 7.590623 2.345635
v -7.590625 7.590623 0.000000
v -2.345636 7.590623 -7.219121
v -1.949818 8.684617 -6.000923
v -0.000000 8.684617 -6.309744
v -7.219120 7.590623 -2.345635
v -6.309743 8.684617 0.000000
v -6.000923 8.684617 -1.949818
v -8.684619 -0.000000 6.309743
v -6.309743 -0.000000 8.684617
v -6.232056 1.679287 8.577689
v -8.577690 1.679287 6.232056
v 8.684621 -0.000000 -6.309744
v 6.309744 -0.000000 -8.684622
v 6.232058 1.679287 -8.577692
v 8.577693 1.679287 -6.232058
v -3.708773 8.684617 -5.104692
v -5.104692 8.684617 -3.708771
v -3.942731 9.564745 -2.864563
v -2.864563 9.564745 -3.942731
v 5.622025 4.873482 -7.738049
v 2.955671 4.873482 -9.096619
v 5.104692 6.309742 -7.026001
v -9.096617 4.873482 2.955670
v -7.738047 4.873482 5.622023
v -7.026000 6.309742 5.104691
v -1.505991 9.564745 -4.634961
v -4.634960 9.564745 -1.505989
v 1.949818 8.684617 -6.000923
v -6.000923 8.684617 1.949818
v -6.000923 3.317225 8.259562
v -8.259564 3.317225 6.000923
v 6.000924 3.317225 -8.259566
v 8.259566 3.317225 -6.000924
v -0.000000 9.564745 -4.873483
v -4.873483 9.564745 0.000000
v 4.461664 7.590623 -6.140950
v -6.140948 7.590623 4.461663
v -5.622023 4.873482 7.738046
v 7.738050 4.873482 -5.622025
v -2.683695 10.209378 -1.949818
v -1.949818 10.209378 -2.683695
v -1.025080 10.209378 -3.154872
v -3.154871 10.209378 -1.025080
v 1.505991 9.564745 -4.634961
v -4.634960 9.564745 1.505989
v -0.987062 10.602612 -1.358574
v -1.358573 10.602612 -0.987061
v -0.000000 10.734776 0.000000
v 3.708776 8.684617 -5.104692
v -5.104691 8.684617 3.708770
v -0.518929 10.602612 -1.597098
v -1.597098 10.602612 -0.518928
v -0.000000 10.209378 -3.317227
v -3.317226 10.209378 0.000000
v -0.000000 10.602612 -1.679288
v -1.679288 10.602612 0.000000
v 10.209384 -0.000000 -3.317227
v 10.083690 1.679287 -3.276388
v 0.518929 10.602612 -1.597098
v -1.597098 10.602612 0.518929
v -5.104691 6.309742 7.026000
v 7.026002 6.309742 -5.104692
v 0.987061 10.602612 -1.358574
v -1.358573 10.602612 0.987061
v -0.987061 10.602612 1.358573
v 1.358574 10.602612 -0.987061
v -0.518929 10.602612 1.597098
v 1.597099 10.602612 -0.518929
v -0.000000 10.602612 1.679288
v 1.679287 10.602612 0.000000
v 1.025080 10.209378 -3.154872
v -3.154871 10.209378 1.025080
v -5.280380 -0.000000 9.209102
v -5.219292 0.865488 9.164724
v -5.019000 1.679287 9.195771
v 1.597098 10.602612 0.518929
v 0.518928 10.602612 1.597098
v 2.864563 9.564745 -3.942732
v -3.942731 9.564745 2.864562
v 0.987061 10.602612 1.358573
v 1.358573 10.602612 0.987061
v -4.461663 7.590623 6.140947
v 6.140950 7.590623 -4.461664
v 9.709698 3.317225 -3.154872
v -4.142844 3.251977 9.223662
v -4.071357 3.317225 9.242723
v 1.949818 10.209375 -2.683695
v -2.683694 10.209375 1.949818
v -3.708770 8.684620 5.104691
v 5.104692 8.684620 -3.708769
v 5.280378 -0.000003 9.209102
v 6.309743 -0.000003 8.684617
v 9.096618 4.873484 -2.955671
v -2.864563 9.564747 3.942731
v 3.942732 9.564747 -2.864563
v -2.955669 4.873481 9.096616
v -2.683694 6.309741 8.259562
v 8.259565 6.309744 -2.683695
v 10.734777 -0.000001 0.000000
v 10.602612 1.679286 0.000000
v -1.949818 10.209378 2.683694
v 2.683696 10.209378 -1.949818
v -2.345634 7.590623 7.219121
v 7.219121 7.590623 -2.345637
v 10.209378 3.317225 0.000000
v -1.949818 8.684617 6.000922
v 6.000924 8.684616 -1.949817
v -1.025081 10.209378 3.154871
v 3.154873 10.209378 -1.025082
v -1.505992 9.564745 4.634961
v 4.634963 9.564745 -1.505992
v 9.564745 4.873481 0.000002
v 0.000001 10.209378 3.317227
v 3.317226 10.209378 -0.000000
v 10.209378 -0.000003 3.317229
v 10.083687 1.679287 3.276385
v 8.684614 6.309742 0.000001
v 3.154873 10.209375 1.025081
v 1.025079 10.209378 3.154871
v 0.000000 9.564745 4.873483
v 4.873481 9.564745 -0.000000
v -0.000001 6.309741 8.684617
v -0.000001 7.590623 7.590622
v 7.590623 7.590623 0.000000
v -0.000002 8.684617 6.309743
v 6.309742 8.684617 0.000001
v 1.949817 10.209378 2.683695
v 2.683695 10.209378 1.949818
v 9.709687 3.317228 3.154870
v 4.634959 9.564747 1.505992
v 1.505989 9.564747 4.634961
v 8.684616 0.000000 6.309741
v 8.577688 1.679287 6.232057
v 9.096617 4.873482 2.955670
v 2.864562 9.564747 3.942730
v 3.942731 9.564747 2.864561
v 6.000922 8.684616 1.949817
v 1.949817 8.684616 6.000922
v 6.232055 1.679289 8.577688
v 8.259562 6.309744 2.683694
v 7.219120 7.590621 2.345634
v 2.345634 7.590622 7.219120
v 2.683693 6.309741 8.259562
v 8.259562 3.317228 6.000922
v 5.104689 8.684620 3.708770
v 3.708770 8.684619 5.104689
v 6.000921 3.317226 8.259562
v 7.738045 4.873484 5.622023
v 6.140948 7.590625 4.461662
v 4.461662 7.590623 6.140946
v -2.005892 4.873482 9.247046
v -3.037665 4.232903 9.348968
v -2.750306 4.475962 9.293802
v -2.253741 4.761645 9.254125
v 2.955668 4.873479 9.096615
v 5.622023 4.873484 7.738047
v 5.104689 6.309744 7.025999
v 7.025999 6.309744 5.104690
v -5.012456 1.709668 9.191025
v -4.705477 2.468167 9.145579
v -4.686431 2.511747 9.143685
v -3.498611 3.912135 9.261389
v 5.018999 1.679289 9.195771
v 5.219292 0.865488 9.164716
v 4.705467 2.468180 9.145578
v 5.012456 1.709663 9.191020
v 3.037666 4.232901 9.348967
v 2.005895 4.873482 9.247046
v 2.253740 4.761650 9.254124
v 2.750305 4.475962 9.293803
v 4.071357 3.317224 9.242723
v 4.142845 3.251976 9.223662
v 4.686430 2.511747 9.143685
v 3.498610 3.912135 9.261389
v -1.894824 4.929576 9.230269
v -1.157051 5.154598 9.209230
v -0.528499 5.261560 9.243236
v 0.000000 5.261561 9.326941
v -0.000000 5.261561 9.326940
v 0.528497 5.261559 9.243233
v 1.157052 5.154595 9.209230
v 1.894822 4.929574 9.230270
v -9.709690 3.317226 3.154871
v 3.154872 3.317226 -9.709690
v -6.140947 7.590622 -4.461662
v -4.461664 7.590622 -6.140948
v -9.564757 4.873482 -0.000005
v -0.000002 4.873482 -9.564761
v -10.083689 1.679286 3.276387
v 3.276384 1.679287 -10.083689
v -8.259563 6.309742 -2.683693
v -2.683695 6.309742 -8.259565
v -10.209383 -0.000001 3.317225
v 3.317226 -0.000001 -10.209383
v -7.026000 6.309742 -5.104692
v -5.104692 6.309740 -7.026000
v -10.209383 3.317223 -0.000000
v -0.000003 3.317225 -10.209383
v -9.096615 4.873482 -2.955670
v -2.955670 4.873482 -9.096619
v -10.602613 1.679287 0.000001
v 0.000001 1.679289 -10.602616
v -7.738049 4.873484 -5.622023
v -5.622023 4.873482 -7.738047
v -9.709688 3.317224 -3.154871
v -3.154873 3.317224 -9.709688
v -10.734778 0.000001 -0.000000
v 0.000000 0.000001 -10.734780
v -8.259565 3.317224 -6.000923
v -6.000923 3.317224 -8.259565
v -10.083688 1.679287 -3.276385
v -3.276387 1.679287 -10.083688
v -10.209383 0.000001 -3.317226
v -3.317227 -0.000000 -10.209383
v -8.577688 1.679286 -6.232056
v -6.232057 1.679284 -8.577691
v -8.684620 0.000001 -6.309743
v -6.309744 0.000001 -8.684621
vt 0.375000 0.312500
vt 0.387500 0.312500
vt 0.387500 0.688440
vt 0.375000 0.688440
vt 0.400000 0.312500
vt 0.400000 0.688440
vt 0.412500 0.312500
vt 0.412500 0.688440
vt 0.425000 0.312500
vt 0.425000 0.688440
vt 0.437500 0.312500
vt 0.437500 0.688440
vt 0.450000 0.312500
vt 0.450000 0.688440
vt 0.462500 0.312500
vt 0.462500 0.688440
vt 0.475000 0.312500
vt 0.475000 0.688440
vt 0.487500 0.312500
vt 0.487500 0.688440
vt 0.500000 0.312500
vt 0.500000 0.688440
vt 0.512500 0.312500
vt 0.512500 0.688440
vt 0.525000 0.312500
vt 0.525000 0.688440
vt 0.537500 0.312500
vt 0.537500 0.688440
vt 0.550000 0.312500
vt 0.550000 0.688440
vt 0.562500 0.312500
vt 0.562500 0.688440
vt 0.575000 0.312500
vt 0.575000 0.688440
vt 0.587500 0.312500
vt 0.587500 0.688440
vt 0.600000 0.312500
vt 0.600000 0.688440
vt 0.612500 0.312500
vt 0.612500 0.688440
vt 0.625000 0.312500
vt 0.625000 0.688440
vt 0.626409 0.064408
vt 0.648603 0.107966
vt 0.500000 0.150000
vt 0.591842 0.029841
vt 0.548284 0.007647
vt 0.500000 -0.000000
vt 0.451716 0.007647
vt 0.408159 0.029841
vt 0.373591 0.064409
vt 0.351397 0.107966
vt 0.343750 0.156250
vt 0.351397 0.204534
vt 0.373591 0.248091
vt 0.408159 0.282659
vt 0.451716 0.304853
vt 0.500000 0.312500
vt 0.548284 0.304853
vt 0.591841 0.282659
vt 0.626409 0.248091
vt 0.648603 0.204534
vt 0.656250 0.156250
vt 0.648603 0.892034
vt 0.626409 0.935591
vt 0.500000 0.837500
vt 0.591841 0.970159
vt 0.548284 0.992353
vt 0.500000 1.000000
vt 0.451716 0.992353
vt 0.408159 0.970159
vt 0.373591 0.935591
vt 0.351397 0.892034
vt 0.343750 0.843750
vt 0.351397 0.795466
vt 0.373591 0.751909
vt 0.408159 0.717341
vt 0.451716 0.695147
vt 0.500000 0.687500
vt 0.548284 0.695147
vt 0.591842 0.717341
vt 0.626409 0.751908
vt 0.648603 0.795466
vt 0.656250 0.843750
vt 0.150000 0.700000
vt 0.150000 0.750000
vt 0.200000 0.750000
vt 0.200000 0.700000
vt 0.450000 0.700000
vt 0.450000 0.750000
vt 0.500000 0.750000
vt 0.500000 0.700000
vt 0.200000 0.800000
vt 0.250000 0.800000
vt 0.250000 0.750000
vt 0.400000 0.750000
vt 0.400000 0.800000
vt 0.450000 0.800000
vt 0.550000 0.500000
vt 0.550000 0.550000
vt 0.600000 0.550000
vt 0.600000 0.500000
vt 0.050000 0.500000
vt 0.050000 0.550000
vt 0.100000 0.550000
vt 0.100000 0.500000
vt 0.300000 0.800000
vt 0.300000 0.850000
vt 0.350000 0.850000
vt 0.350000 0.800000
vt 0.100000 0.650000
vt 0.100000 0.700000
vt 0.150000 0.650000
vt 0.500000 0.650000
vt 0.550000 0.700000
vt 0.550000 0.650000
vt 0.250000 0.850000
vt 0.400000 0.850000
vt 0.150000 0.800000
vt 0.500000 0.800000
vt 0.550000 0.600000
vt 0.600000 0.600000
vt 0.050000 0.600000
vt 0.100000 0.600000
vt 0.200000 0.850000
vt 0.450000 0.850000
vt 0.100000 0.750000
vt 0.550000 0.750000
vt 0.600000 0.650000
vt 0.050000 0.650000
vt 0.300000 0.900000
vt 0.350000 0.900000
vt 0.250000 0.900000
vt 0.400000 0.900000
vt 0.150000 0.850000
vt 0.500000 0.850000
vt 0.300000 0.950000
vt 0.325000 1.000000
vt 0.350000 0.950000
vt 0.100000 0.800000
vt 0.550000 0.800000
vt 0.250000 0.950000
vt 0.275000 1.000000
vt 0.375000 1.000000
vt 0.400000 0.950000
vt 0.200000 0.900000
vt 0.450000 0.900000
vt 0.200000 0.950000
vt 0.225000 1.000000
vt 0.425000 1.000000
vt 0.450000 0.950000
vt 0.000000 0.500000
vt 0.000000 0.550000
vt 0.150000 0.950000
vt 0.175000 1.000000
vt 0.475000 1.000000
vt 0.500000 0.950000
vt 0.600000 0.700000
vt 0.050000 0.700000
vt 0.100000 0.950000
vt 0.125000 1.000000
vt 0.525000 1.000000
vt 0.550000 0.950000
vt 0.575000 1.000000
vt 0.600000 0.950000
vt 0.050000 0.950000
vt 0.075000 1.000000
vt 0.625000 1.000000
vt 0.650000 0.950000
vt 0.000000 0.950000
vt 0.025000 1.000000
vt 0.675000 1.000000
vt 0.700000 0.950000
vt 0.950000 0.950000
vt 0.975000 1.000000
vt 1.000000 0.950000
vt 0.150000 0.900000
vt 0.500000 0.900000
vt 0.620521 0.550000
vt 0.617660 0.525770
vt 0.617199 0.500000
vt 0.900000 0.950000
vt 0.925000 1.000000
vt 0.725000 1.000000
vt 0.750000 0.950000
vt 0.100000 0.850000
vt 0.550000 0.850000
vt 0.775000 1.000000
vt 0.800000 0.950000
vt 0.850000 0.950000
vt 0.875000 1.000000
vt 0.825000 1.000000
vt 0.600000 0.750000
vt 0.050000 0.750000
vt 0.000000 0.600000
vt 0.633899 0.600000
vt 0.632728 0.598008
vt 0.624160 0.575412
vt 0.623942 0.574082
vt 0.620559 0.550927
vt 0.100000 0.900000
vt 0.550000 0.900000
vt 0.600000 0.800000
vt 0.050000 0.800000
vt 0.779479 0.550000
vt 0.800000 0.550000
vt 0.782231 0.525770
vt 0.800000 0.500000
vt 0.782801 0.500000
vt 0.000000 0.650000
vt 0.600000 0.850000
vt 0.050000 0.850000
vt 0.650000 0.700000
vt 0.650000 0.650000
vt 0.000000 0.700000
vt 0.950000 0.500000
vt 0.950000 0.550000
vt 1.000000 0.550000
vt 1.000000 0.500000
vt 0.600000 0.900000
vt 0.050000 0.900000
vt 0.650000 0.750000
vt 0.000000 0.750000
vt 0.950000 0.600000
vt 1.000000 0.600000
vt 0.650000 0.800000
vt 0.000000 0.800000
vt 0.650000 0.900000
vt 0.000000 0.900000
vt 0.650000 0.850000
vt 0.000000 0.850000
vt 0.950000 0.650000
vt 1.000000 0.650000
vt 0.700000 0.900000
vt 0.950000 0.900000
vt 1.000000 0.900000
vt 0.900000 0.500000
vt 0.900000 0.550000
vt 0.950000 0.700000
vt 1.000000 0.700000
vt 0.900000 0.900000
vt 0.750000 0.900000
vt 0.700000 0.850000
vt 0.950000 0.850000
vt 1.000000 0.850000
vt 0.700000 0.750000
vt 0.700000 0.700000
vt 0.950000 0.750000
vt 1.000000 0.750000
vt 0.700000 0.800000
vt 0.950000 0.800000
vt 1.000000 0.800000
vt 0.800000 0.900000
vt 0.850000 0.900000
vt 0.900000 0.600000
vt 0.900000 0.850000
vt 0.750000 0.850000
vt 0.850000 0.500000
vt 0.850000 0.550000
vt 0.900000 0.650000
vt 0.800000 0.850000
vt 0.850000 0.850000
vt 0.900000 0.800000
vt 0.750000 0.800000
vt 0.900000 0.700000
vt 0.900000 0.750000
vt 0.750000 0.750000
vt 0.750000 0.700000
vt 0.850000 0.600000
vt 0.850000 0.800000
vt 0.800000 0.800000
vt 0.800000 0.600000
vt 0.850000 0.650000
vt 0.850000 0.750000
vt 0.800000 0.750000
vt 0.666067 0.650000
vt 0.662035 0.646407
vt 0.650000 0.629419
vt 0.654220 0.637228
vt 0.750000 0.650000
vt 0.800000 0.700000
vt 0.800000 0.650000
vt 0.850000 0.700000
vt 0.642391 0.619113
vt 0.766101 0.600000
vt 0.767195 0.598008
vt 0.774910 0.575412
vt 0.775165 0.574082
vt 0.779407 0.550927
vt 0.733933 0.650000
vt 0.737965 0.646407
vt 0.750000 0.629419
vt 0.745780 0.637228
vt 0.757610 0.619113
vt 0.700000 0.663510
vt 0.690775 0.663510
vt 0.680030 0.659786
vt 0.667831 0.651953
vt 0.700000 0.663510
vt 0.709225 0.663510
vt 0.719970 0.659786
vt 0.732170 0.651953
vt 0.500000 0.600000
vt 0.150000 0.600000
vt 0.350000 0.750000
vt 0.300000 0.750000
vt 0.450000 0.650000
vt 0.200000 0.650000
vt 0.500000 0.550000
vt 0.150000 0.550000
vt 0.400000 0.700000
vt 0.250000 0.700000
vt 0.500000 0.500000
vt 0.150000 0.500000
vt 0.350000 0.700000
vt 0.300000 0.700000
vt 0.450000 0.600000
vt 0.200000 0.600000
vt 0.400000 0.650000
vt 0.250000 0.650000
vt 0.450000 0.550000
vt 0.200000 0.550000
vt 0.350000 0.650000
vt 0.300000 0.650000
vt 0.400000 0.600000
vt 0.250000 0.600000
vt 0.450000 0.500000
vt 0.200000 0.500000
vt 0.350000 0.600000
vt 0.300000 0.600000
vt 0.400000 0.550000
vt 0.250000 0.550000
vt 0.400000 0.500000
vt 0.250000 0.500000
vt 0.350000 0.550000
vt 0.300000 0.550000
vt 0.350000 0.500000
vt 0.300000 0.500000
vt 0.150000 0.700000
vt 0.200000 0.700000
vt 0.200000 0.750000
vt 0.150000 0.750000
vt 0.450000 0.700000
vt 0.500000 0.700000
vt 0.500000 0.750000
vt 0.450000 0.750000
vt 0.250000 0.750000
vt 0.250000 0.800000
vt 0.200000 0.800000
vt 0.400000 0.750000
vt 0.450000 0.800000
vt 0.400000 0.800000
vt 0.550000 0.500000
vt 0.600000 0.500000
vt 0.600000 0.550000
vt 0.550000 0.550000
vt 0.050000 0.500000
vt 0.100000 0.500000
vt 0.100000 0.550000
vt 0.050000 0.550000
vt 0.300000 0.800000
vt 0.350000 0.800000
vt 0.350000 0.850000
vt 0.300000 0.850000
vt 0.100000 0.650000
vt 0.150000 0.650000
vt 0.100000 0.700000
vt 0.500000 0.650000
vt 0.550000 0.650000
vt 0.550000 0.700000
vt 0.250000 0.850000
vt 0.400000 0.850000
vt 0.150000 0.800000
vt 0.500000 0.800000
vt 0.600000 0.600000
vt 0.550000 0.600000
vt 0.100000 0.600000
vt 0.050000 0.600000
vt 0.200000 0.850000
vt 0.450000 0.850000
vt 0.100000 0.750000
vt 0.550000 0.750000
vt 0.600000 0.650000
vt 0.050000 0.650000
vt 0.350000 0.900000
vt 0.300000 0.900000
vt 0.250000 0.900000
vt 0.400000 0.900000
vt 0.150000 0.850000
vt 0.500000 0.850000
vt 0.300000 0.950000
vt 0.350000 0.950000
vt 0.325000 1.000000
vt 0.100000 0.800000
vt 0.550000 0.800000
vt 0.250000 0.950000
vt 0.275000 1.000000
vt 0.400000 0.950000
vt 0.375000 1.000000
vt 0.200000 0.900000
vt 0.450000 0.900000
vt 0.200000 0.950000
vt 0.225000 1.000000
vt 0.450000 0.950000
vt 0.425000 1.000000
vt 0.000000 0.500000
vt 0.000000 0.550000
vt 0.150000 0.950000
vt 0.175000 1.000000
vt 0.500000 0.950000
vt 0.475000 1.000000
vt 0.600000 0.700000
vt 0.050000 0.700000
vt 0.100000 0.950000
vt 0.125000 1.000000
vt 0.550000 0.950000
vt 0.525000 1.000000
vt 0.600000 0.950000
vt 0.575000 1.000000
vt 0.050000 0.950000
vt 0.075000 1.000000
vt 0.650000 0.950000
vt 0.625000 1.000000
vt 0.000000 0.950000
vt 0.025000 1.000000
vt 0.700000 0.950000
vt 0.675000 1.000000
vt 0.950000 0.950000
vt 1.000000 0.950000
vt 0.975000 1.000000
vt 0.150000 0.900000
vt 0.500000 0.900000
vt 0.620521 0.550000
vt 0.617660 0.525770
vt 0.617199 0.500000
vt 0.900000 0.950000
vt 0.925000 1.000000
vt 0.750000 0.950000
vt 0.725000 1.000000
vt 0.100000 0.850000
vt 0.550000 0.850000
vt 0.800000 0.950000
vt 0.775000 1.000000
vt 0.850000 0.950000
vt 0.875000 1.000000
vt 0.825000 1.000000
vt 0.600000 0.750000
vt 0.050000 0.750000
vt 0.000000 0.600000
vt 0.633899 0.600000
vt 0.632728 0.598008
vt 0.624160 0.575412
vt 0.623942 0.574082
vt 0.620559 0.550927
vt 0.100000 0.900000
vt 0.550000 0.900000
vt 0.600000 0.800000
vt 0.050000 0.800000
vt 0.779479 0.550000
vt 0.782231 0.525770
vt 0.800000 0.550000
vt 0.800000 0.500000
vt 0.782801 0.500000
vt 0.000000 0.650000
vt 0.600000 0.850000
vt 0.050000 0.850000
vt 0.650000 0.650000
vt 0.650000 0.700000
vt 0.000000 0.700000
vt 0.950000 0.500000
vt 1.000000 0.500000
vt 1.000000 0.550000
vt 0.950000 0.550000
vt 0.600000 0.900000
vt 0.050000 0.900000
vt 0.650000 0.750000
vt 0.000000 0.750000
vt 1.000000 0.600000
vt 0.950000 0.600000
vt 0.650000 0.800000
vt 0.000000 0.800000
vt 0.650000 0.900000
vt 0.000000 0.900000
vt 0.650000 0.850000
vt 0.000000 0.850000
vt 1.000000 0.650000
vt 0.950000 0.650000
vt 0.700000 0.900000
vt 0.950000 0.900000
vt 1.000000 0.900000
vt 0.900000 0.500000
vt 0.900000 0.550000
vt 1.000000 0.700000
vt 0.950000 0.700000
vt 0.900000 0.900000
vt 0.750000 0.900000
vt 0.700000 0.850000
vt 0.950000 0.850000
vt 1.000000 0.850000
vt 0.700000 0.700000
vt 0.700000 0.750000
vt 1.000000 0.750000
vt 0.950000 0.750000
vt 0.700000 0.800000
vt 0.950000 0.800000
vt 1.000000 0.800000
vt 0.800000 0.900000
vt 0.850000 0.900000
vt 0.900000 0.600000
vt 0.900000 0.850000
vt 0.750000 0.850000
vt 0.850000 0.500000
vt 0.850000 0.550000
vt 0.900000 0.650000
vt 0.800000 0.850000
vt 0.850000 0.850000
vt 0.900000 0.800000
vt 0.750000 0.800000
vt 0.900000 0.700000
vt 0.900000 0.750000
vt 0.750000 0.750000
vt 0.750000 0.700000
vt 0.850000 0.600000
vt 0.850000 0.800000
vt 0.800000 0.800000
vt 0.800000 0.600000
vt 0.850000 0.650000
vt 0.850000 0.750000
vt 0.800000 0.750000
vt 0.666067 0.650000
vt 0.662035 0.646407
vt 0.650000 0.629419
vt 0.654220 0.637228
vt 0.750000 0.650000
vt 0.800000 0.650000
vt 0.800000 0.700000
vt 0.850000 0.700000
vt 0.642391 0.619113
vt 0.766101 0.600000
vt 0.767195 0.598008
vt 0.774910 0.575412
vt 0.775165 0.574082
vt 0.779407 0.550927
vt 0.733933 0.650000
vt 0.737965 0.646407
vt 0.750000 0.629419
vt 0.745780 0.637228
vt 0.757610 0.619113
vt 0.700000 0.663510
vt 0.690775 0.663510
vt 0.680030 0.659786
vt 0.667831 0.651953
vt 0.700000 0.663510
vt 0.709225 0.663510
vt 0.719970 0.659786
vt 0.732170 0.651953
vt 0.500000 0.600000
vt 0.150000 0.600000
vt 0.350000 0.750000
vt 0.300000 0.750000
vt 0.450000 0.650000
vt 0.200000 0.650000
vt 0.500000 0.550000
vt 0.150000 0.550000
vt 0.400000 0.700000
vt 0.250000 0.700000
vt 0.500000 0.500000
vt 0.150000 0.500000
vt 0.350000 0.700000
vt 0.300000 0.700000
vt 0.450000 0.600000
vt 0.200000 0.600000
vt 0.400000 0.650000
vt 0.250000 0.650000
vt 0.450000 0.550000
vt 0.200000 0.550000
vt 0.350000 0.650000
vt 0.300000 0.650000
vt 0.400000 0.600000
vt 0.250000 0.600000
vt 0.450000 0.500000
vt 0.200000 0.500000
vt 0.350000 0.600000
vt 0.300000 0.600000
vt 0.400000 0.550000
vt 0.250000 0.550000
vt 0.400000 0.500000
vt 0.250000 0.500000
vt 0.350000 0.550000
vt 0.300000 0.550000
vt 0.350000 0.500000
vt 0.300000 0.500000
vn 0.951058 -0.000000 -0.309012
vn 0.809014 0.000000 -0.587789
vn 0.809017 0.000000 -0.587786
vn 0.951057 -0.000000 -0.309015
vn 0.587782 0.000000 -0.809019
vn 0.587782 0.000000 -0.809020
vn 0.309026 -0.000000 -0.951054
vn 0.309021 -0.000000 -0.951055
vn 0.000012 -0.000000 -1.000000
vn 0.000014 -0.000000 -1.000000
vn -0.309017 0.000000 -0.951057
vn -0.309016 0.000000 -0.951057
vn -0.587792 0.000001 -0.809012
vn -0.587793 0.000001 -0.809012
vn -0.809021 0.000001 -0.587780
vn -0.809022 0.000001 -0.587778
vn -0.951060 0.000001 -0.309008
vn -0.951060 0.000001 -0.309006
vn -1.000000 0.000000 0.000001
vn -1.000000 0.000000 -0.000001
vn -0.951060 0.000000 0.309006
vn -0.951061 0.000000 0.309004
vn -0.809014 -0.000000 0.587789
vn -0.809014 -0.000000 0.587790
vn -0.587782 -0.000000 0.809019
vn -0.587781 -0.000000 0.809020
vn -0.309019 -0.000000 0.951056
vn -0.309020 -0.000000 0.951056
vn -0.000013 -0.000000 1.000000
vn -0.000013 -0.000000 1.000000
vn 0.309018 -0.000001 0.951056
vn 0.309016 -0.000001 0.951057
vn 0.587788 -0.000000 0.809015
vn 0.587787 -0.000000 0.809016
vn 0.809016 0.000000 0.587786
vn 0.809017 0.000000 0.587785
vn 0.951058 -0.000000 0.309012
vn 0.951058 -0.000000 0.309011
vn 1.000000 -0.000000 0.000008
vn 1.000000 -0.000000 0.000006
vn 0.000004 -1.000000 0.000012
vn -0.000007 -1.000000 -0.000010
vn -0.000002 -1.000000 -0.000002
vn -0.000025 -1.000000 -0.000004
vn -0.000030 -1.000000 -0.000020
vn 0.000022 -1.000000 -0.000010
vn 0.000023 -1.000000 -0.000003
vn -0.000005 -1.000000 0.000008
vn -0.000006 -1.000000 0.000006
vn -0.000001 -1.000000 -0.000001
vn -0.000001 -1.000000 -0.000009
vn 0.000001 -1.000000 -0.000009
vn 0.000006 -1.000000 0.000002
vn 0.000002 -1.000000 0.000001
vn 0.000002 -1.000000 -0.000001
vn -0.000003 -1.000000 0.000001
vn -0.000008 -1.000000 -0.000001
vn -0.000002 -1.000000 -0.000003
vn -0.000003 -1.000000 -0.000002
vn -0.000007 -1.000000 0.000010
vn -0.000011 -1.000000 0.000000
vn -0.000007 1.000000 0.000017
vn -0.000030 1.000000 -0.000023
vn 0.000003 1.000000 0.000001
vn -0.000005 1.000000 -0.000017
vn 0.000010 1.000000 0.000006
vn -0.000009 1.000000 -0.000003
vn 0.000007 1.000000 -0.000007
vn 0.000006 1.000000 -0.000001
vn 0.000009 1.000000 -0.000011
vn 0.000016 1.000000 -0.000015
vn 0.000012 1.000000 0.000023
vn 0.000006 1.000000 0.000019
vn -0.000005 1.000000 -0.000013
vn -0.000001 1.000000 -0.000009
vn 0.000011 1.000000 0.000000
vn 0.000007 1.000000 -0.000002
vn 0.000016 1.000000 -0.000004
vn 0.000019 1.000000 -0.000000
vn -0.000002 1.000000 0.000015
vn -0.000007 1.000000 0.000019
vn -0.000003 1.000000 0.000023
vn -0.251643 -0.580401 0.774475
vn -0.221049 -0.698789 0.680317
vn 0.000000 -0.698789 0.715328
vn -0.000000 -0.580401 0.814331
vn 0.814331 -0.580401 0.000000
vn 0.715328 -0.698789 0.000000
vn 0.680317 -0.698789 -0.221048
vn 0.774475 -0.580400 -0.251642
vn 0.000000 -0.800252 0.599665
vn 0.185307 -0.800251 0.570315
vn 0.221049 -0.698789 0.680317
vn 0.680317 -0.698789 0.221048
vn 0.570316 -0.800251 0.185306
vn 0.599666 -0.800251 -0.000000
vn 0.806522 -0.078462 -0.585974
vn 0.799334 -0.154249 -0.580751
vn 0.666190 -0.154958 -0.729506
vn 0.677331 -0.077915 -0.731541
vn -0.806523 -0.078462 0.585974
vn -0.799334 -0.154249 0.580751
vn -0.580751 -0.154249 0.799335
vn -0.585973 -0.078463 0.806523
vn 0.352474 -0.800251 0.485139
vn 0.276700 -0.882267 0.380845
vn 0.380845 -0.882267 0.276700
vn 0.485139 -0.800251 0.352474
vn -0.525501 -0.447994 0.723291
vn -0.478652 -0.580401 0.658808
vn -0.276273 -0.447993 0.850280
vn 0.850280 -0.447993 -0.276273
vn 0.658808 -0.580401 -0.478652
vn 0.723291 -0.447994 -0.525501
vn 0.145470 -0.882267 0.447710
vn 0.447710 -0.882267 0.145470
vn -0.185306 -0.800252 0.570315
vn 0.570315 -0.800251 -0.185306
vn 0.770524 -0.304789 -0.559818
vn 0.625871 -0.307641 -0.716689
vn -0.770524 -0.304789 0.559818
vn -0.559818 -0.304788 0.770525
vn 0.000000 -0.882267 0.470750
vn 0.470750 -0.882267 0.000000
vn -0.420460 -0.698789 0.578713
vn 0.578712 -0.698789 -0.420460
vn 0.549202 -0.463192 -0.695579
vn -0.723291 -0.447994 0.525501
vn 0.196075 -0.942721 0.269873
vn 0.269873 -0.942721 0.196074
vn 0.103082 -0.942721 0.317255
vn 0.317255 -0.942721 0.103082
vn -0.145470 -0.882267 0.447710
vn 0.447710 -0.882267 -0.145470
vn 0.117769 -0.979722 0.162096
vn -0.000000 -1.000000 -0.000000
vn 0.162095 -0.979722 0.117770
vn -0.352474 -0.800251 0.485139
vn 0.485139 -0.800251 -0.352474
vn 0.061915 -0.979722 0.190554
vn 0.190555 -0.979722 0.061915
vn 0.000000 -0.942721 0.333581
vn 0.333582 -0.942721 0.000000
vn 0.000000 -0.979722 0.200361
vn 0.200361 -0.979722 -0.000000
vn -0.948125 -0.078460 0.308064
vn -0.939674 -0.154249 0.305318
vn -0.061915 -0.979722 0.190554
vn 0.190555 -0.979722 -0.061916
vn 0.478652 -0.580401 -0.658808
vn -0.658807 -0.580401 0.478652
vn -0.117770 -0.979722 0.162095
vn 0.162096 -0.979722 -0.117770
vn 0.117770 -0.979722 -0.162095
vn -0.162095 -0.979722 0.117769
vn 0.061915 -0.979722 -0.190555
vn -0.190555 -0.979722 0.061914
vn 0.000000 -0.979722 -0.200361
vn -0.200361 -0.979722 -0.000000
vn -0.103083 -0.942721 0.317254
vn 0.317255 -0.942721 -0.103083
vn 0.452364 -0.084596 -0.887812
vn 0.452626 -0.077503 -0.888326
vn 0.452622 -0.077496 -0.888329
vn -0.190555 -0.979722 -0.061915
vn -0.061915 -0.979722 -0.190555
vn -0.276700 -0.882267 0.380845
vn 0.380845 -0.882267 -0.276700
vn -0.117769 -0.979722 -0.162095
vn -0.162096 -0.979722 -0.117768
vn 0.420460 -0.698789 -0.578712
vn -0.578712 -0.698789 0.420460
vn -0.905805 -0.304791 0.294313
vn 0.420661 -0.376077 -0.825597
vn 0.441741 -0.230718 -0.866968
vn 0.441741 -0.230721 -0.866967
vn 0.441746 -0.230727 -0.866963
vn 0.441745 -0.230723 -0.866965
vn -0.196074 -0.942721 0.269873
vn 0.269873 -0.942721 -0.196074
vn 0.352474 -0.800251 -0.485139
vn -0.485139 -0.800251 0.352474
vn -0.452363 -0.084594 -0.887813
vn -0.666190 -0.154958 -0.729506
vn -0.452623 -0.077503 -0.888327
vn -0.677331 -0.077915 -0.731541
vn -0.452623 -0.077503 -0.888328
vn -0.850280 -0.447994 0.276271
vn 0.276700 -0.882267 -0.380844
vn -0.380844 -0.882267 0.276700
vn 0.284551 -0.596002 -0.750875
vn 0.361466 -0.495297 -0.789952
vn -0.774476 -0.580400 0.251641
vn -0.996917 -0.078459 -0.000001
vn -0.988032 -0.154250 -0.000001
vn 0.196075 -0.942721 -0.269872
vn -0.269872 -0.942721 0.196075
vn 0.221048 -0.698789 -0.680318
vn -0.680317 -0.698789 0.221048
vn -0.952419 -0.304791 -0.000001
vn 0.185306 -0.800251 -0.570316
vn -0.570316 -0.800251 0.185306
vn 0.103082 -0.942721 -0.317255
vn -0.317255 -0.942721 0.103082
vn 0.145469 -0.882267 -0.447710
vn -0.447711 -0.882266 0.145469
vn -0.894037 -0.447993 -0.000001
vn 0.000000 -0.942721 -0.333582
vn -0.333581 -0.942721 -0.000000
vn -0.948125 -0.078460 -0.308065
vn -0.939674 -0.154250 -0.305319
vn -0.814332 -0.580400 -0.000000
vn -0.317255 -0.942721 -0.103082
vn -0.103082 -0.942721 -0.317255
vn 0.000000 -0.882267 -0.470750
vn -0.470750 -0.882267 -0.000000
vn -0.000000 -0.698789 -0.715328
vn -0.000000 -0.618130 -0.786076
vn -0.715328 -0.698789 -0.000000
vn -0.000000 -0.800251 -0.599666
vn -0.599666 -0.800251 -0.000000
vn -0.196074 -0.942721 -0.269873
vn -0.269873 -0.942722 -0.196074
vn -0.905805 -0.304790 -0.294314
vn -0.447710 -0.882267 -0.145469
vn -0.145470 -0.882266 -0.447711
vn -0.806523 -0.078461 -0.585974
vn -0.799335 -0.154249 -0.580751
vn -0.850280 -0.447993 -0.276272
vn -0.276700 -0.882267 -0.380845
vn -0.380845 -0.882267 -0.276700
vn -0.570316 -0.800251 -0.185306
vn -0.185306 -0.800251 -0.570316
vn -0.774475 -0.580400 -0.251642
vn -0.680318 -0.698789 -0.221048
vn -0.221048 -0.698789 -0.680318
vn -0.284550 -0.596002 -0.750875
vn -0.770525 -0.304789 -0.559818
vn -0.485139 -0.800251 -0.352474
vn -0.352474 -0.800251 -0.485140
vn -0.625871 -0.307641 -0.716689
vn -0.723291 -0.447994 -0.525501
vn -0.578712 -0.698789 -0.420459
vn -0.420459 -0.698789 -0.578713
vn 0.134142 -0.514555 -0.846900
vn 0.144788 -0.378692 -0.914127
vn 0.411485 -0.379171 -0.828800
vn 0.144795 -0.378651 -0.914143
vn -0.361466 -0.495297 -0.789952
vn -0.478651 -0.580401 -0.658808
vn -0.549202 -0.463192 -0.695579
vn -0.658808 -0.580401 -0.478652
vn 0.420184 -0.378654 -0.824661
vn -0.420660 -0.376077 -0.825597
vn -0.441741 -0.230719 -0.866968
vn -0.441742 -0.230721 -0.866967
vn -0.441738 -0.230717 -0.866970
vn -0.441740 -0.230723 -0.866968
vn -0.134144 -0.514556 -0.846899
vn -0.144793 -0.378695 -0.914125
vn -0.411484 -0.379172 -0.828800
vn -0.144800 -0.378654 -0.914141
vn -0.420183 -0.378654 -0.824662
vn -0.000003 -0.522497 -0.852641
vn 0.133830 -0.517797 -0.844971
vn 0.133830 -0.517797 -0.844971
vn 0.133838 -0.517793 -0.844972
vn 0.000005 1.000000 0.000000
vn -0.133831 -0.517796 -0.844971
vn -0.133828 -0.517800 -0.844969
vn -0.133836 -0.517794 -0.844972
vn 0.905805 -0.304790 -0.294314
vn -0.294315 -0.304790 0.905805
vn 0.578713 -0.698789 0.420460
vn 0.420460 -0.698789 0.578712
vn 0.894037 -0.447992 0.000001
vn 0.000000 -0.447992 0.894037
vn 0.939674 -0.154250 -0.305319
vn -0.305319 -0.154250 0.939674
vn 0.774475 -0.580401 0.251642
vn 0.251643 -0.580401 0.774475
vn 0.948125 -0.078460 -0.308065
vn -0.308065 -0.078461 0.948125
vn 0.658808 -0.580401 0.478652
vn 0.478652 -0.580401 0.658808
vn 0.952420 -0.304790 0.000000
vn 0.000000 -0.304790 0.952420
vn 0.850280 -0.447993 0.276273
vn 0.276273 -0.447992 0.850280
vn 0.988032 -0.154250 0.000000
vn -0.000000 -0.154250 0.988032
vn 0.723291 -0.447994 0.525501
vn 0.525501 -0.447994 0.723291
vn 0.905805 -0.304790 0.294314
vn 0.294315 -0.304790 0.905805
vn 0.996917 -0.078459 0.000000
vn 0.000000 -0.078460 0.996917
vn 0.770525 -0.304788 0.559818
vn 0.559818 -0.304788 0.770525
vn 0.939674 -0.154250 0.305319
vn 0.305319 -0.154250 0.939674
vn 0.948124 -0.078461 0.308065
vn 0.308065 -0.078461 0.948125
vn 0.799335 -0.154250 0.580751
vn 0.580751 -0.154249 0.799334
vn 0.806523 -0.078463 0.585973
vn 0.585974 -0.078463 0.806522
vn 0.251643 0.580401 -0.774475
vn 0.000000 0.580401 -0.814331
vn -0.000000 0.698789 -0.715328
vn 0.221049 0.698789 -0.680317
vn -0.814331 0.580401 -0.000000
vn -0.774475 0.580401 0.251642
vn -0.680317 0.698789 0.221048
vn -0.715328 0.698789 0.000000
vn -0.221049 0.698789 -0.680317
vn -0.185307 0.800251 -0.570315
vn -0.000000 0.800252 -0.599665
vn -0.680317 0.698789 -0.221048
vn -0.599666 0.800251 0.000000
vn -0.570316 0.800251 -0.185307
vn -0.806522 0.078462 0.585974
vn -0.677331 0.077915 0.731540
vn -0.666190 0.154958 0.729506
vn -0.799334 0.154249 0.580751
vn 0.806523 0.078462 -0.585974
vn 0.585973 0.078463 -0.806523
vn 0.580751 0.154249 -0.799335
vn 0.799334 0.154249 -0.580751
vn -0.352474 0.800251 -0.485139
vn -0.485139 0.800251 -0.352474
vn -0.380845 0.882267 -0.276700
vn -0.276700 0.882267 -0.380845
vn 0.525501 0.447994 -0.723291
vn 0.276273 0.447993 -0.850280
vn 0.478652 0.580401 -0.658808
vn -0.850280 0.447993 0.276273
vn -0.723291 0.447994 0.525501
vn -0.658808 0.580401 0.478652
vn -0.145470 0.882267 -0.447710
vn -0.447710 0.882267 -0.145470
vn 0.185306 0.800251 -0.570315
vn -0.570315 0.800251 0.185307
vn -0.625871 0.307641 0.716689
vn -0.770524 0.304789 0.559818
vn 0.559818 0.304788 -0.770525
vn 0.770524 0.304789 -0.559818
vn -0.000000 0.882267 -0.470750
vn -0.470750 0.882267 -0.000000
vn 0.420460 0.698789 -0.578713
vn -0.578713 0.698789 0.420460
vn -0.549202 0.463192 0.695579
vn 0.723291 0.447994 -0.525501
vn -0.269873 0.942721 -0.196074
vn -0.196075 0.942721 -0.269873
vn -0.103082 0.942721 -0.317255
vn -0.317255 0.942721 -0.103082
vn 0.145470 0.882267 -0.447710
vn -0.447710 0.882267 0.145470
vn -0.117769 0.979722 -0.162095
vn -0.162096 0.979722 -0.117769
vn 0.000000 1.000000 0.000000
vn 0.352474 0.800251 -0.485139
vn -0.485139 0.800251 0.352474
vn -0.061915 0.979722 -0.190554
vn -0.190555 0.979722 -0.061915
vn -0.000000 0.942721 -0.333582
vn -0.333582 0.942721 -0.000000
vn -0.000000 0.979722 -0.200361
vn -0.200361 0.979722 0.000000
vn 0.948125 0.078460 -0.308064
vn 0.939674 0.154249 -0.305318
vn 0.061915 0.979722 -0.190554
vn -0.190555 0.979722 0.061916
vn -0.478652 0.580401 0.658808
vn 0.658807 0.580401 -0.478652
vn 0.117770 0.979722 -0.162096
vn -0.162096 0.979722 0.117770
vn -0.117770 0.979722 0.162095
vn 0.162095 0.979722 -0.117770
vn -0.061915 0.979722 0.190555
vn 0.190555 0.979722 -0.061915
vn -0.000000 0.979722 0.200361
vn 0.200361 0.979722 0.000000
vn 0.103083 0.942721 -0.317255
vn -0.317255 0.942721 0.103083
vn -0.452364 0.084596 0.887812
vn -0.452626 0.077503 0.888326
vn -0.452622 0.077496 0.888329
vn 0.190555 0.979722 0.061915
vn 0.061915 0.979722 0.190555
vn 0.276700 0.882267 -0.380845
vn -0.380845 0.882267 0.276700
vn 0.117769 0.979722 0.162095
vn 0.162096 0.979722 0.117768
vn -0.420460 0.698789 0.578712
vn 0.578712 0.698789 -0.420460
vn 0.905805 0.304791 -0.294313
vn -0.420661 0.376077 0.825597
vn -0.441741 0.230718 0.866968
vn -0.441741 0.230721 0.866967
vn -0.441744 0.230728 0.866964
vn -0.441744 0.230723 0.866965
vn 0.196074 0.942721 -0.269873
vn -0.269873 0.942721 0.196074
vn -0.352474 0.800251 0.485139
vn 0.485139 0.800251 -0.352474
vn 0.452363 0.084594 0.887813
vn 0.452623 0.077503 0.888327
vn 0.666190 0.154958 0.729506
vn 0.677331 0.077915 0.731541
vn 0.452623 0.077503 0.888328
vn 0.850280 0.447994 -0.276271
vn -0.276700 0.882267 0.380845
vn 0.380844 0.882267 -0.276700
vn -0.361466 0.495297 0.789952
vn -0.284551 0.596002 0.750875
vn 0.774476 0.580400 -0.251641
vn 0.996917 0.078459 0.000001
vn 0.988032 0.154250 0.000001
vn -0.196075 0.942721 0.269872
vn 0.269872 0.942721 -0.196075
vn -0.221048 0.698789 0.680318
vn 0.680317 0.698789 -0.221048
vn 0.952419 0.304791 0.000001
vn -0.185306 0.800251 0.570316
vn 0.570316 0.800251 -0.185306
vn -0.103082 0.942721 0.317255
vn 0.317255 0.942721 -0.103082
vn -0.145469 0.882267 0.447710
vn 0.447711 0.882266 -0.145469
vn 0.894037 0.447993 0.000001
vn -0.000000 0.942721 0.333582
vn 0.333581 0.942721 0.000000
vn 0.948125 0.078460 0.308065
vn 0.939674 0.154250 0.305319
vn 0.814332 0.580400 0.000000
vn 0.317255 0.942721 0.103082
vn 0.103082 0.942721 0.317255
vn -0.000000 0.882267 0.470750
vn 0.470750 0.882266 0.000000
vn 0.000000 0.618130 0.786076
vn 0.000000 0.698789 0.715328
vn 0.715328 0.698789 0.000000
vn 0.000000 0.800251 0.599666
vn 0.599666 0.800251 0.000000
vn 0.196074 0.942721 0.269873
vn 0.269873 0.942721 0.196074
vn 0.905805 0.304790 0.294314
vn 0.447710 0.882267 0.145469
vn 0.145470 0.882266 0.447710
vn 0.806523 0.078461 0.585973
vn 0.799335 0.154249 0.580751
vn 0.850280 0.447993 0.276272
vn 0.276700 0.882267 0.380845
vn 0.380845 0.882267 0.276700
vn 0.570316 0.800251 0.185306
vn 0.185306 0.800251 0.570316
vn 0.774475 0.580400 0.251642
vn 0.680318 0.698789 0.221048
vn 0.221048 0.698789 0.680318
vn 0.284550 0.596002 0.750875
vn 0.770524 0.304789 0.559818
vn 0.485139 0.800251 0.352474
vn 0.352474 0.800251 0.485140
vn 0.625871 0.307641 0.716688
vn 0.723291 0.447993 0.525501
vn 0.578712 0.698789 0.420459
vn 0.420459 0.698789 0.578713
vn -0.134143 0.514555 0.846900
vn -0.144789 0.378692 0.914127
vn -0.411485 0.379171 0.828800
vn -0.144795 0.378651 0.914143
vn 0.361466 0.495297 0.789952
vn 0.549202 0.463192 0.695579
vn 0.478651 0.580401 0.658808
vn 0.658808 0.580401 0.478652
vn -0.420183 0.378655 0.824662
vn 0.420661 0.376077 0.825597
vn 0.441742 0.230719 0.866968
vn 0.441742 0.230721 0.866967
vn 0.441739 0.230717 0.866970
vn 0.441740 0.230723 0.866968
vn 0.134144 0.514556 0.846899
vn 0.144792 0.378695 0.914125
vn 0.411484 0.379172 0.828800
vn 0.144799 0.378654 0.914141
vn 0.420184 0.378654 0.824661
vn 0.000003 0.522497 0.852641
vn -0.133830 0.517797 0.844971
vn -0.133830 0.517797 0.844971
vn -0.133838 0.517793 0.844972
vn -0.000005 -0.994212 -0.107436
vn 0.133831 0.517796 0.844971
vn 0.133828 0.517800 0.844969
vn 0.133836 0.517794 0.844971
vn -0.905805 0.304790 0.294314
vn 0.294315 0.304790 -0.905805
vn -0.578712 0.698789 -0.420460
vn -0.420460 0.698789 -0.578712
vn -0.894037 0.447992 -0.000001
vn -0.000000 0.447992 -0.894038
vn -0.939674 0.154250 0.305319
vn 0.305319 0.154250 -0.939674
vn -0.774475 0.580401 -0.251642
vn -0.251643 0.580401 -0.774475
vn -0.948125 0.078460 0.308065
vn 0.308065 0.078461 -0.948125
vn -0.658807 0.580401 -0.478652
vn -0.478652 0.580401 -0.658808
vn -0.952420 0.304790 -0.000000
vn -0.000000 0.304790 -0.952420
vn -0.850280 0.447993 -0.276273
vn -0.276273 0.447992 -0.850280
vn -0.988032 0.154250 -0.000000
vn 0.000000 0.154250 -0.988032
vn -0.723291 0.447994 -0.525501
vn -0.525501 0.447993 -0.723291
vn -0.905805 0.304790 -0.294314
vn -0.294315 0.304790 -0.905805
vn -0.996917 0.078459 -0.000000
vn -0.000000 0.078460 -0.996917
vn -0.770525 0.304788 -0.559818
vn -0.559818 0.304788 -0.770525
vn -0.939674 0.154250 -0.305319
vn -0.305319 0.154250 -0.939674
vn -0.948124 0.078461 -0.308065
vn -0.308065 0.078461 -0.948124
vn -0.799335 0.154249 -0.580751
vn -0.580751 0.154249 -0.799334
vn -0.806523 0.078463 -0.585973
vn -0.585974 0.078463 -0.806522
s 1
g Hideout
usemtl initialShadingGroup
f 1/1/1 2/2/2 22/3/3 21/4/4
f 2/2/2 3/5/5 23/6/6 22/3/3
f 3/5/5 4/7/7 24/8/8 23/6/6
f 4/7/7 5/9/9 25/10/10 24/8/8
f 5/9/9 6/11/11 26/12/12 25/10/10
f 6/11/11 7/13/13 27/14/14 26/12/12
f 7/13/13 8/15/15 28/16/16 27/14/14
f 8/15/15 9/17/17 29/18/18 28/16/16
f 9/17/17 10/19/19 30/20/20 29/18/18
f 10/19/19 11/21/21 31/22/22 30/20/20
f 11/21/21 12/23/23 32/24/24 31/22/22
f 12/23/23 13/25/25 33/26/26 32/24/24
f 13/25/25 14/27/27 34/28/28 33/26/26
f 14/27/27 15/29/29 35/30/30 34/28/28
f 15/29/29 16/31/31 36/32/32 35/30/30
f 16/31/31 17/33/33 37/34/34 36/32/32
f 17/33/33 18/35/35 38/36/36 37/34/34
f 18/35/35 19/37/37 39/38/38 38/36/36
f 19/37/37 20/39/39 40/40/40 39/38/38
f 20/39/39 1/41/1 21/42/4 40/40/40
s 2
f 2/43/41 1/44/42 41/45/43
f 3/46/44 2/43/41 41/45/43
f 4/47/45 3/46/44 41/45/43
f 5/48/46 4/47/45 41/45/43
f 6/49/47 5/48/46 41/45/43
f 7/50/48 6/49/47 41/45/43
f 8/51/49 7/50/48 41/45/43
f 9/52/50 8/51/49 41/45/43
f 10/53/51 9/52/50 41/45/43
f 11/54/52 10/53/51 41/45/43
f 12/55/53 11/54/52 41/45/43
f 13/56/54 12/55/53 41/45/43
f 14/57/55 13/56/54 41/45/43
f 15/58/56 14/57/55 41/45/43
f 16/59/57 15/58/56 41/45/43
f 17/60/58 16/59/57 41/45/43
f 18/61/59 17/60/58 41/45/43
f 19/62/60 18/61/59 41/45/43
f 20/63/61 19/62/60 41/45/43
f 1/44/42 20/63/61 41/45/43
s 3
f 21/64/62 22/65/63 42/66/64
f 22/65/63 23/67/65 42/66/64
f 23/67/65 24/68/66 42/66/64
f 24/68/66 25/69/67 42/66/64
f 25/69/67 26/70/68 42/66/64
f 26/70/68 27/71/69 42/66/64
f 27/71/69 28/72/70 42/66/64
f 28/72/70 29/73/71 42/66/64
f 29/73/71 30/74/72 42/66/64
f 30/74/72 31/75/73 42/66/64
f 31/75/73 32/76/74 42/66/64
f 32/76/74 33/77/75 42/66/64
f 33/77/75 34/78/76 42/66/64
f 34/78/76 35/79/77 42/66/64
f 35/79/77 36/80/78 42/66/64
f 36/80/78 37/81/79 42/66/64
f 37/81/79 38/82/80 42/66/64
f 38/82/80 39/83/81 42/66/64
f 39/83/81 40/84/82 42/66/64
f 40/84/82 21/64/62 42/66/64
s 4
f 43/85/83 46/86/84 45/87/85 44/88/86
f 47/89/87 50/90/88 49/91/89 48/92/90
f 45/87/85 53/93/91 52/94/92 51/95/93
f 54/96/94 56/97/95 55/98/96 50/90/88
f 57/99/97 60/100/98 59/101/99 58/102/100
f 61/103/101 64/104/102 63/105/103 62/106/104
f 65/107/105 68/108/106 67/109/107 66/110/108
f 69/111/109 71/112/110 43/85/83 70/113/111
f 72/114/112 48/92/90 74/115/113 73/116/114
f 52/94/92 75/117/115 68/108/106 65/107/105
f 66/110/108 67/109/107 76/118/116 56/97/95
f 46/86/84 77/119/117 53/93/91 45/87/85
f 50/90/88 55/98/96 78/120/118 49/91/89
f 60/100/98 80/121/119 79/122/120 59/101/99
f 64/104/102 82/123/121 81/124/122 63/105/103
f 53/93/91 83/125/123 75/117/115 52/94/92
f 56/97/95 76/118/116 84/126/124 55/98/96
f 71/112/110 85/127/125 46/86/84 43/85/83
f 48/92/90 49/91/89 86/128/126 74/115/113
f 80/121/119 73/116/114 87/129/127 79/122/120
f 82/123/121 88/130/128 69/111/109 81/124/122
f 68/108/106 90/131/129 89/132/130 67/109/107
f 75/117/115 91/133/131 90/131/129 68/108/106
f 67/109/107 89/132/130 92/134/132 76/118/116
f 77/119/117 93/135/133 83/125/123 53/93/91
f 55/98/96 84/126/124 94/136/134 78/120/118
f 95/137/135 97/138/136 96/139/137
f 85/127/125 98/140/138 77/119/117 46/86/84
f 49/91/89 78/120/118 99/141/139 86/128/126
f 100/142/140 97/143/136 95/137/135
f 96/139/137 97/144/136 101/145/141
f 83/125/123 102/146/142 91/133/131 75/117/115
f 76/118/116 92/134/132 103/147/143 84/126/124
f 104/148/144 97/149/136 100/142/140
f 101/145/141 97/150/136 105/151/145
f 106/152/146 107/153/147 64/104/102 61/103/101
f 108/154/148 97/155/136 104/148/144
f 105/151/145 97/156/136 109/157/149
f 73/116/114 74/115/113 110/158/150 87/129/127
f 88/130/128 111/159/151 71/112/110 69/111/109
f 112/160/152 97/161/136 108/154/148
f 109/157/149 97/162/136 113/163/153
f 113/163/153 97/164/136 114/165/154
f 115/166/155 97/167/136 112/160/152
f 114/165/154 97/168/136 116/169/156
f 117/170/157 97/171/136 115/166/155
f 116/169/156 97/172/136 118/173/158
f 119/174/159 97/175/136 117/176/157
f 93/135/133 120/177/160 102/146/142 83/125/123
f 84/126/124 103/147/143 121/178/161 94/136/134
f 124/179/162 123/180/163 59/101/99
f 59/101/99 123/180/163 58/102/100
f 58/102/100 123/180/163 122/181/164
f 125/182/165 97/183/136 119/174/159
f 118/173/158 97/184/136 126/185/166
f 98/140/138 127/186/167 93/135/133 77/119/117
f 78/120/118 94/136/134 128/187/168 99/141/139
f 126/185/166 97/188/136 129/189/169
f 130/190/170 97/191/136 125/182/165
f 129/189/169 97/192/136 130/190/170
f 90/131/129 95/137/135 96/139/137 89/132/130
f 74/115/113 86/128/126 131/193/171 110/158/150
f 111/159/151 132/194/172 85/127/125 71/112/110
f 107/153/147 133/195/173 82/123/121 64/104/102
f 91/133/131 100/142/140 95/137/135 90/131/129
f 89/132/130 96/139/137 101/145/141 92/134/132
f 135/196/174 134/197/175 79/122/120
f 134/197/175 210/198/176 79/122/120
f 79/122/120 210/198/176 59/101/99
f 210/198/176 209/199/177 59/101/99
f 124/179/162 59/101/99 208/200/178
f 59/101/99 209/199/177 208/200/178
f 102/146/142 104/148/144 100/142/140 91/133/131
f 92/134/132 101/145/141 105/151/145 103/147/143
f 127/186/167 136/201/179 120/177/160 93/135/133
f 94/136/134 121/178/161 137/202/180 128/187/168
f 86/128/126 99/141/139 138/203/181 131/193/171
f 132/194/172 139/204/182 98/140/138 85/127/125
f 212/205/183 188/206/184 213/207/185
f 188/206/184 141/208/186 213/207/185
f 213/207/185 141/208/186 140/209/187
f 120/177/160 108/154/148 104/148/144 102/146/142
f 103/147/143 105/151/145 109/157/149 121/178/161
f 133/195/173 142/210/188 88/130/128 82/123/121
f 99/141/139 128/187/168 143/211/189 138/203/181
f 139/204/182 144/212/190 127/186/167 98/140/138
f 136/201/179 112/160/152 108/154/148 120/177/160
f 121/178/161 109/157/149 113/163/153 137/202/180
f 87/129/127 110/158/150 146/213/191 145/214/192
f 142/210/188 147/215/193 111/159/151 88/130/128
f 148/216/194 149/217/195 107/218/147 106/219/146
f 128/187/168 137/202/180 150/220/196 143/211/189
f 144/212/190 151/221/197 136/201/179 127/186/167
f 137/202/180 113/163/153 114/165/154 150/220/196
f 151/221/197 115/166/155 112/160/152 136/201/179
f 110/158/150 131/193/171 152/222/198 146/213/191
f 147/215/193 153/223/199 132/194/172 111/159/151
f 149/217/195 154/224/200 133/225/173 107/218/147
f 131/193/171 138/203/181 155/226/201 152/222/198
f 153/223/199 156/227/202 139/204/182 132/194/172
f 150/220/196 114/165/154 116/169/156 157/228/203
f 158/229/204 117/170/157 115/166/155 151/221/197
f 138/203/181 143/211/189 159/230/205 155/226/201
f 156/227/202 160/231/206 144/212/190 139/204/182
f 143/211/189 150/220/196 157/228/203 159/230/205
f 160/231/206 158/229/204 151/221/197 144/212/190
f 154/224/200 161/232/207 142/233/188 133/225/173
f 157/228/203 116/169/156 118/173/158 162/234/208
f 163/235/209 119/174/159 117/176/157 158/236/204
f 164/237/210 165/238/211 149/217/195 148/216/194
f 161/232/207 166/239/212 147/240/193 142/233/188
f 167/241/213 125/182/165 119/174/159 163/235/209
f 162/234/208 118/173/158 126/185/166 168/242/214
f 159/230/205 157/228/203 162/234/208 169/243/215
f 170/244/216 163/235/209 158/236/204 160/245/206
f 146/213/191 152/222/198 172/246/217 171/247/218
f 166/239/212 173/248/219 153/249/199 147/240/193
f 155/226/201 159/230/205 169/243/215 174/250/220
f 175/251/221 170/244/216 160/245/206 156/252/202
f 168/242/214 126/185/166 129/189/169 176/253/222
f 177/254/223 130/190/170 125/182/165 167/241/213
f 152/222/198 155/226/201 174/250/220 172/246/217
f 173/248/219 175/251/221 156/252/202 153/249/199
f 176/253/222 129/189/169 130/190/170 177/254/223
f 165/238/211 178/255/224 154/224/200 149/217/195
f 179/256/225 167/241/213 163/235/209 170/244/216
f 169/243/215 162/234/208 168/242/214 180/257/226
f 181/258/227 182/259/228 165/238/211 164/237/210
f 178/255/224 183/260/229 161/232/207 154/224/200
f 180/257/226 168/242/214 176/253/222 184/261/230
f 185/262/231 177/254/223 167/241/213 179/256/225
f 186/263/232 179/256/225 170/244/216 175/251/221
f 174/250/220 169/243/215 180/257/226 187/264/233
f 184/261/230 176/253/222 177/254/223 185/262/231
f 141/208/186 188/206/184 182/259/228 181/258/227
f 183/260/229 189/265/234 166/239/212 161/232/207
f 190/266/235 186/263/232 175/251/221 173/248/219
f 172/246/217 174/250/220 187/264/233 191/267/236
f 189/265/234 190/266/235 173/248/219 166/239/212
f 171/247/218 172/246/217 191/267/236 192/268/237
f 182/259/228 193/269/238 178/255/224 165/238/211
f 194/270/239 185/262/231 179/256/225 186/263/232
f 187/264/233 180/257/226 184/261/230 195/271/240
f 195/271/240 184/261/230 185/262/231 194/270/239
f 188/206/184 196/272/241 193/269/238 182/259/228
f 193/269/238 197/273/242 183/260/229 178/255/224
f 198/274/243 194/270/239 186/263/232 190/266/235
f 191/267/236 187/264/233 195/271/240 199/275/244
f 200/276/245 203/277/246 145/214/192
f 201/278/247 145/214/192 202/279/248
f 145/214/192 203/277/246 202/279/248
f 204/280/249 192/268/237 206/281/250 205/282/251
f 197/273/242 207/283/252 189/265/234 183/260/229
f 207/283/252 198/274/243 190/266/235 189/265/234
f 192/268/237 191/267/236 199/275/244 206/281/250
f 199/275/244 195/271/240 194/270/239 198/274/243
f 196/272/241 205/282/251 197/273/242 193/269/238
f 206/281/250 199/275/244 198/274/243 207/283/252
f 205/282/251 206/281/250 207/283/252 197/273/242
f 79/122/120 87/129/127 135/196/174
f 135/196/174 87/129/127 211/284/253
f 145/214/192 201/278/247 87/129/127
f 211/284/253 87/129/127 201/278/247
f 220/285/254 196/272/241 221/286/255
f 221/286/255 196/272/241 222/287/256
f 196/272/241 188/206/184 222/287/256
f 222/287/256 188/206/184 214/288/257
f 212/205/183 215/289/258 188/206/184
f 214/288/257 188/206/184 215/289/258
f 217/290/259 204/280/249 218/291/260
f 216/292/261 219/293/262 204/280/249
f 204/280/249 219/293/262 218/291/260
f 196/272/241 220/285/254 205/282/251
f 220/285/254 223/294/263 205/282/251
f 204/280/249 205/282/251 216/292/261
f 205/282/251 223/294/263 216/292/261
f 227/295/264 226/296/265 171/247/218
f 171/247/218 226/296/265 146/213/191
f 226/296/265 225/297/266 146/213/191
f 225/297/266 224/298/267 146/213/191
f 145/214/192 146/213/191 200/276/245
f 200/276/245 146/213/191 224/298/267
f 228/299/268 227/295/264 229/300/269
f 227/295/264 171/247/218 229/300/269
f 171/247/218 192/268/237 229/300/269
f 229/300/269 192/268/237 230/301/270
f 230/301/270 192/268/237 231/302/271
f 204/280/249 217/290/259 192/268/237
f 217/290/259 231/302/271 192/268/237
f 232/303/272 72/114/112 73/116/114 80/121/119
f 81/124/122 69/111/109 70/113/111 233/304/273
f 234/305/274 66/110/108 56/97/95 54/96/94
f 51/95/93 52/94/92 65/107/105 235/306/275
f 235/306/275 65/107/105 66/110/108 234/305/274
f 236/307/276 47/89/87 48/92/90 72/114/112
f 70/113/111 43/85/83 44/88/86 237/308/277
f 238/309/278 232/303/272 80/121/119 60/100/98
f 63/105/103 81/124/122 233/304/273 239/310/279
f 240/311/280 54/96/94 50/90/88 47/89/87
f 44/88/86 45/87/85 51/95/93 241/312/281
f 242/313/282 238/309/278 60/100/98 57/99/97
f 62/106/104 63/105/103 239/310/279 243/314/283
f 244/315/284 234/305/274 54/96/94 240/311/280
f 241/312/281 51/95/93 235/306/275 245/316/285
f 246/317/286 236/307/276 72/114/112 232/303/272
f 233/304/273 70/113/111 237/308/277 247/318/287
f 245/316/285 235/306/275 234/305/274 244/315/284
f 248/319/288 240/311/280 47/89/87 236/307/276
f 237/308/277 44/88/86 241/312/281 249/320/289
f 250/321/290 246/317/286 232/303/272 238/309/278
f 239/310/279 233/304/273 247/318/287 251/322/291
f 252/323/292 244/315/284 240/311/280 248/319/288
f 249/320/289 241/312/281 245/316/285 253/324/293
f 254/325/294 248/319/288 236/307/276 246/317/286
f 247/318/287 237/308/277 249/320/289 255/326/295
f 253/324/293 245/316/285 244/315/284 252/323/292
f 256/327/296 250/321/290 238/309/278 242/313/282
f 243/314/283 239/310/279 251/322/291 257/328/297
f 258/329/298 252/323/292 248/319/288 254/325/294
f 255/326/295 249/320/289 253/324/293 259/330/299
f 260/331/300 254/325/294 246/317/286 250/321/290
f 251/322/291 247/318/287 255/326/295 261/332/301
f 259/330/299 253/324/293 252/323/292 258/329/298
f 262/333/302 260/331/300 250/321/290 256/327/296
f 257/328/297 251/322/291 261/332/301 263/334/303
f 264/335/304 258/329/298 254/325/294 260/331/300
f 261/332/301 255/326/295 259/330/299 265/336/305
f 265/336/305 259/330/299 258/329/298 264/335/304
f 266/337/306 264/335/304 260/331/300 262/333/302
f 263/334/303 261/332/301 265/336/305 267/338/307
f 267/338/307 265/336/305 264/335/304 266/337/306
s 16
f 268/339/308 269/340/309 270/341/310 271/342/311
f 272/343/312 273/344/313 274/345/314 275/346/315
f 270/341/310 276/347/316 277/348/317 278/349/318
f 279/350/319 275/346/315 280/351/320 281/352/321
f 282/353/322 283/354/323 284/355/324 285/356/325
f 286/357/326 287/358/327 288/359/328 289/360/329
f 290/361/330 291/362/331 292/363/332 293/364/333
f 294/365/334 295/366/335 268/339/308 296/367/336
f 297/368/337 298/369/338 299/370/339 273/344/313
f 277/348/317 290/361/330 293/364/333 300/371/340
f 291/362/331 281/352/321 301/372/341 292/363/332
f 271/342/311 270/341/310 278/349/318 302/373/342
f 275/346/315 274/345/314 303/374/343 280/351/320
f 285/356/325 284/355/324 304/375/344 305/376/345
f 289/360/329 288/359/328 306/377/346 307/378/347
f 278/349/318 277/348/317 300/371/340 308/379/348
f 281/352/321 280/351/320 309/380/349 301/372/341
f 296/367/336 268/339/308 271/342/311 310/381/350
f 273/344/313 299/370/339 311/382/351 274/345/314
f 305/376/345 304/375/344 312/383/352 298/369/338
f 307/378/347 306/377/346 294/365/334 313/384/353
f 293/364/333 292/363/332 314/385/354 315/386/355
f 300/371/340 293/364/333 315/386/355 316/387/356
f 292/363/332 301/372/341 317/388/357 314/385/354
f 302/373/342 278/349/318 308/379/348 318/389/358
f 280/351/320 303/374/343 319/390/359 309/380/349
f 320/391/360 321/392/361 322/393/362
f 310/381/350 271/342/311 302/373/342 323/394/363
f 274/345/314 311/382/351 324/395/364 303/374/343
f 325/396/365 320/391/360 322/397/362
f 321/392/361 326/398/366 322/399/362
f 308/379/348 300/371/340 316/387/356 327/400/367
f 301/372/341 309/380/349 328/401/368 317/388/357
f 329/402/369 325/396/365 322/403/362
f 326/398/366 330/404/370 322/405/362
f 331/406/371 286/357/326 289/360/329 332/407/372
f 333/408/373 329/402/369 322/409/362
f 330/404/370 334/410/374 322/411/362
f 298/369/338 312/383/352 335/412/375 299/370/339
f 313/384/353 294/365/334 296/367/336 336/413/376
f 337/414/377 333/408/373 322/415/362
f 334/410/374 338/416/378 322/417/362
f 338/416/378 339/418/379 322/419/362
f 340/420/380 337/414/377 322/421/362
f 339/418/379 341/422/381 322/423/362
f 342/424/382 340/420/380 322/425/362
f 341/422/381 343/426/383 322/427/362
f 344/428/384 342/429/382 322/430/362
f 318/389/358 308/379/348 327/400/367 345/431/385
f 309/380/349 319/390/359 346/432/386 328/401/368
f 349/433/387 284/355/324 348/434/388
f 284/355/324 283/354/323 348/434/388
f 283/354/323 347/435/389 348/434/388
f 350/436/390 344/428/384 322/437/362
f 343/426/383 351/438/391 322/439/362
f 323/394/363 302/373/342 318/389/358 352/440/392
f 303/374/343 324/395/364 353/441/393 319/390/359
f 351/438/391 354/442/394 322/443/362
f 355/444/395 350/436/390 322/445/362
f 354/442/394 355/444/395 322/446/362
f 315/386/355 314/385/354 321/392/361 320/391/360
f 299/370/339 335/412/375 356/447/396 311/382/351
f 336/413/376 296/367/336 310/381/350 357/448/397
f 332/407/372 289/360/329 307/378/347 358/449/398
f 316/387/356 315/386/355 320/391/360 325/396/365
f 314/385/354 317/388/357 326/398/366 321/392/361
f 360/450/399 304/375/344 359/451/400
f 359/451/400 304/375/344 435/452/401
f 304/375/344 284/355/324 435/452/401
f 435/452/401 284/355/324 434/453/402
f 349/433/387 433/454/403 284/355/324
f 284/355/324 433/454/403 434/453/402
f 327/400/367 316/387/356 325/396/365 329/402/369
f 317/388/357 328/401/368 330/404/370 326/398/366
f 352/440/392 318/389/358 345/431/385 361/455/404
f 319/390/359 353/441/393 362/456/405 346/432/386
f 311/382/351 356/447/396 363/457/406 324/395/364
f 357/448/397 310/381/350 323/394/363 364/458/407
f 437/459/408 438/460/409 413/461/410
f 413/461/410 438/460/409 366/462/411
f 438/460/409 365/463/412 366/462/411
f 345/431/385 327/400/367 329/402/369 333/408/373
f 328/401/368 346/432/386 334/410/374 330/404/370
f 358/449/398 307/378/347 313/384/353 367/464/413
f 324/395/364 363/457/406 368/465/414 353/441/393
f 364/458/407 323/394/363 352/440/392 369/466/415
f 361/455/404 345/431/385 333/408/373 337/414/377
f 346/432/386 362/456/405 338/416/378 334/410/374
f 312/383/352 370/467/416 371/468/417 335/412/375
f 367/464/413 313/384/353 336/413/376 372/469/418
f 373/470/419 331/471/371 332/472/372 374/473/420
f 353/441/393 368/465/414 375/474/421 362/456/405
f 369/466/415 352/440/392 361/455/404 376/475/422
f 362/456/405 375/474/421 339/418/379 338/416/378
f 376/475/422 361/455/404 337/414/377 340/420/380
f 335/412/375 371/468/417 377/476/423 356/447/396
f 372/469/418 336/413/376 357/448/397 378/477/424
f 374/473/420 332/472/372 358/478/398 379/479/425
f 356/447/396 377/476/423 380/480/426 363/457/406
f 378/477/424 357/448/397 364/458/407 381/481/427
f 375/474/421 382/482/428 341/422/381 339/418/379
f 383/483/429 376/475/422 340/420/380 342/424/382
f 363/457/406 380/480/426 384/484/430 368/465/414
f 381/481/427 364/458/407 369/466/415 385/485/431
f 368/465/414 384/484/430 382/482/428 375/474/421
f 385/485/431 369/466/415 376/475/422 383/483/429
f 379/479/425 358/478/398 367/486/413 386/487/432
f 382/482/428 387/488/433 343/426/383 341/422/381
f 388/489/434 383/490/429 342/429/382 344/428/384
f 389/491/435 373/470/419 374/473/420 390/492/436
f 386/487/432 367/486/413 372/493/418 391/494/437
f 392/495/438 388/489/434 344/428/384 350/436/390
f 387/488/433 393/496/439 351/438/391 343/426/383
f 384/484/430 394/497/440 387/488/433 382/482/428
f 395/498/441 385/499/431 383/490/429 388/489/434
f 371/468/417 396/500/442 397/501/443 377/476/423
f 391/494/437 372/493/418 378/502/424 398/503/444
f 380/480/426 399/504/445 394/497/440 384/484/430
f 400/505/446 381/506/427 385/499/431 395/498/441
f 393/496/439 401/507/447 354/442/394 351/438/391
f 402/508/448 392/495/438 350/436/390 355/444/395
f 377/476/423 397/501/443 399/504/445 380/480/426
f 398/503/444 378/502/424 381/506/427 400/505/446
f 401/507/447 402/508/448 355/444/395 354/442/394
f 390/492/436 374/473/420 379/479/425 403/509/449
f 404/510/450 395/498/441 388/489/434 392/495/438
f 394/497/440 405/511/451 393/496/439 387/488/433
f 406/512/452 389/491/435 390/492/436 407/513/453
f 403/509/449 379/479/425 386/487/432 408/514/454
f 405/511/451 409/515/455 401/507/447 393/496/439
f 410/516/456 404/510/450 392/495/438 402/508/448
f 411/517/457 400/505/446 395/498/441 404/510/450
f 399/504/445 412/518/458 405/511/451 394/497/440
f 409/515/455 410/516/456 402/508/448 401/507/447
f 366/462/411 406/512/452 407/513/453 413/461/410
f 408/514/454 386/487/432 391/494/437 414/519/459
f 415/520/460 398/503/444 400/505/446 411/517/457
f 397/501/443 416/521/461 412/518/458 399/504/445
f 414/519/459 391/494/437 398/503/444 415/520/460
f 396/500/442 417/522/462 416/521/461 397/501/443
f 407/513/453 390/492/436 403/509/449 418/523/463
f 419/524/464 411/517/457 404/510/450 410/516/456
f 412/518/458 420/525/465 409/515/455 405/511/451
f 420/525/465 419/524/464 410/516/456 409/515/455
f 413/461/410 407/513/453 418/523/463 421/526/466
f 418/523/463 403/509/449 408/514/454 422/527/467
f 423/528/468 415/520/460 411/517/457 419/524/464
f 416/521/461 424/529/469 420/525/465 412/518/458
f 425/530/470 370/467/416 428/531/471
f 426/532/472 427/533/473 370/467/416
f 370/467/416 427/533/473 428/531/471
f 429/534/474 430/535/475 431/536/476 417/522/462
f 422/527/467 408/514/454 414/519/459 432/537/477
f 432/537/477 414/519/459 415/520/460 423/528/468
f 417/522/462 431/536/476 424/529/469 416/521/461
f 424/529/469 423/528/468 419/524/464 420/525/465
f 421/526/466 418/523/463 422/527/467 430/535/475
f 431/536/476 432/537/477 423/528/468 424/529/469
f 430/535/475 422/527/467 432/537/477 431/536/476
f 304/375/344 360/450/399 312/383/352
f 360/450/399 436/538/478 312/383/352
f 370/467/416 312/383/352 426/532/472
f 436/538/478 426/532/472 312/383/352
f 445/539/479 446/540/480 421/526/466
f 446/540/480 447/541/481 421/526/466
f 421/526/466 447/541/481 413/461/410
f 447/541/481 439/542/482 413/461/410
f 437/459/408 413/461/410 440/543/483
f 439/542/482 440/543/483 413/461/410
f 442/544/484 443/545/485 429/534/474
f 441/546/486 429/534/474 444/547/487
f 429/534/474 443/545/485 444/547/487
f 421/526/466 430/535/475 445/539/479
f 445/539/479 430/535/475 448/548/488
f 429/534/474 441/546/486 430/535/475
f 430/535/475 441/546/486 448/548/488
f 452/549/489 396/500/442 451/550/490
f 396/500/442 371/468/417 451/550/490
f 451/550/490 371/468/417 450/551/491
f 450/551/491 371/468/417 449/552/492
f 370/467/416 425/530/470 371/468/417
f 425/530/470 449/552/492 371/468/417
f 453/553/493 454/554/494 452/549/489
f 452/549/489 454/554/494 396/500/442
f 396/500/442 454/554/494 417/522/462
f 454/554/494 455/555/495 417/522/462
f 455/555/495 456/556/496 417/522/462
f 429/534/474 417/522/462 442/544/484
f 442/544/484 417/522/462 456/556/496
f 457/557/497 305/376/345 298/369/338 297/368/337
f 306/377/346 458/558/498 295/366/335 294/365/334
f 459/559/499 279/350/319 281/352/321 291/362/331
f 276/347/316 460/560/500 290/361/330 277/348/317
f 460/560/500 459/559/499 291/362/331 290/361/330
f 461/561/501 297/368/337 273/344/313 272/343/312
f 295/366/335 462/562/502 269/340/309 268/339/308
f 463/563/503 285/356/325 305/376/345 457/557/497
f 288/359/328 464/564/504 458/558/498 306/377/346
f 465/565/505 272/343/312 275/346/315 279/350/319
f 269/340/309 466/566/506 276/347/316 270/341/310
f 467/567/507 282/353/322 285/356/325 463/563/503
f 287/358/327 468/568/508 464/564/504 288/359/328
f 469/569/509 465/565/505 279/350/319 459/559/499
f 466/566/506 470/570/510 460/560/500 276/347/316
f 471/571/511 457/557/497 297/368/337 461/561/501
f 458/558/498 472/572/512 462/562/502 295/366/335
f 470/570/510 469/569/509 459/559/499 460/560/500
f 473/573/513 461/561/501 272/343/312 465/565/505
f 462/562/502 474/574/514 466/566/506 269/340/309
f 475/575/515 463/563/503 457/557/497 471/571/511
f 464/564/504 476/576/516 472/572/512 458/558/498
f 477/577/517 473/573/513 465/565/505 469/569/509
f 474/574/514 478/578/518 470/570/510 466/566/506
f 479/579/519 471/571/511 461/561/501 473/573/513
f 472/572/512 480/580/520 474/574/514 462/562/502
f 478/578/518 477/577/517 469/569/509 470/570/510
f 481/581/521 467/567/507 463/563/503 475/575/515
f 468/568/508 482/582/522 476/576/516 464/564/504
f 483/583/523 479/579/519 473/573/513 477/577/517
f 480/580/520 484/584/524 478/578/518 474/574/514
f 485/585/525 475/575/515 471/571/511 479/579/519
f 476/576/516 486/586/526 480/580/520 472/572/512
f 484/584/524 483/583/523 477/577/517 478/578/518
f 487/587/527 481/581/521 475/575/515 485/585/525
f 482/582/522 488/588/528 486/586/526 476/576/516
f 489/589/529 485/585/525 479/579/519 483/583/523
f 486/586/526 490/590/530 484/584/524 480/580/520
f 490/590/530 489/589/529 483/583/523 484/584/524
f 491/591/531 487/587/527 485/585/525 489/589/529
f 488/588/528 492/592/532 490/590/530 486/586/526
f 492/592/532 491/591/531 489/589/529 490/590/530
