%YAML 1.1
%TAG !u! tag:unity3d.com,2011:
--- !u!64 &3267475221785757368
MeshCollider:
  m_ObjectHideFlags: 0
  m_CorrespondingSourceObject: {fileID: 0}
  m_PrefabInstance: {fileID: 0}
  m_PrefabAsset: {fileID: 0}
  m_GameObject: {fileID: 4043300190785631957}
  m_Material: {fileID: 0}
  m_IsTrigger: 0
  m_Enabled: 1
  serializedVersion: 4
  m_Convex: 0
  m_CookingOptions: 30
  m_Mesh: {fileID: 962209921104072034, guid: fbd51449c3b76de43a8531b5ed4bb323, type: 3}
--- !u!1001 &3809440313043766148
PrefabInstance:
  m_ObjectHideFlags: 0
  serializedVersion: 2
  m_Modification:
    m_TransformParent: {fileID: 0}
    m_Modifications:
    - target: {fileID: -8679921383154817045, guid: fbd51449c3b76de43a8531b5ed4bb323,
        type: 3}
      propertyPath: m_RootOrder
      value: 0
      objectReference: {fileID: 0}
    - target: {fileID: -8679921383154817045, guid: fbd51449c3b76de43a8531b5ed4bb323,
        type: 3}
      propertyPath: m_LocalScale.x
      value: 0.29946
      objectReference: {fileID: 0}
    - target: {fileID: -8679921383154817045, guid: fbd51449c3b76de43a8531b5ed4bb323,
        type: 3}
      propertyPath: m_LocalScale.y
      value: 0.29946
      objectReference: {fileID: 0}
    - target: {fileID: -8679921383154817045, guid: fbd51449c3b76de43a8531b5ed4bb323,
        type: 3}
      propertyPath: m_LocalScale.z
      value: 0.29946
      objectReference: {fileID: 0}
    - target: {fileID: -8679921383154817045, guid: fbd51449c3b76de43a8531b5ed4bb323,
        type: 3}
      propertyPath: m_LocalPosition.x
      value: -9.5
      objectReference: {fileID: 0}
    - target: {fileID: -8679921383154817045, guid: fbd51449c3b76de43a8531b5ed4bb323,
        type: 3}
      propertyPath: m_LocalPosition.y
      value: 2.79
      objectReference: {fileID: 0}
    - target: {fileID: -8679921383154817045, guid: fbd51449c3b76de43a8531b5ed4bb323,
        type: 3}
      propertyPath: m_LocalPosition.z
      value: 9.37
      objectReference: {fileID: 0}
    - target: {fileID: -8679921383154817045, guid: fbd51449c3b76de43a8531b5ed4bb323,
        type: 3}
      propertyPath: m_LocalRotation.w
      value: 0.9853371
      objectReference: {fileID: 0}
    - target: {fileID: -8679921383154817045, guid: fbd51449c3b76de43a8531b5ed4bb323,
        type: 3}
      propertyPath: m_LocalRotation.x
      value: -0
      objectReference: {fileID: 0}
    - target: {fileID: -8679921383154817045, guid: fbd51449c3b76de43a8531b5ed4bb323,
        type: 3}
      propertyPath: m_LocalRotation.y
      value: -0.17061909
      objectReference: {fileID: 0}
    - target: {fileID: -8679921383154817045, guid: fbd51449c3b76de43a8531b5ed4bb323,
        type: 3}
      propertyPath: m_LocalRotation.z
      value: -0
      objectReference: {fileID: 0}
    - target: {fileID: -8679921383154817045, guid: fbd51449c3b76de43a8531b5ed4bb323,
        type: 3}
      propertyPath: m_LocalEulerAnglesHint.x
      value: 0
      objectReference: {fileID: 0}
    - target: {fileID: -8679921383154817045, guid: fbd51449c3b76de43a8531b5ed4bb323,
        type: 3}
      propertyPath: m_LocalEulerAnglesHint.y
      value: -19.648
      objectReference: {fileID: 0}
    - target: {fileID: -8679921383154817045, guid: fbd51449c3b76de43a8531b5ed4bb323,
        type: 3}
      propertyPath: m_LocalEulerAnglesHint.z
      value: 0
      objectReference: {fileID: 0}
    - target: {fileID: 919132149155446097, guid: fbd51449c3b76de43a8531b5ed4bb323,
        type: 3}
      propertyPath: m_Name
      value: BOTW - Wooden_gate Object Variant
      objectReference: {fileID: 0}
    - target: {fileID: 1954859237364998489, guid: fbd51449c3b76de43a8531b5ed4bb323,
        type: 3}
      propertyPath: m_Materials.Array.data[0]
      value: 
      objectReference: {fileID: 2100000, guid: dd9d377b64a05f4429c89e01893087d5, type: 2}
    m_RemovedComponents: []
  m_SourcePrefab: {fileID: 100100000, guid: fbd51449c3b76de43a8531b5ed4bb323, type: 3}
--- !u!1 &4043300190785631957 stripped
GameObject:
  m_CorrespondingSourceObject: {fileID: 919132149155446097, guid: fbd51449c3b76de43a8531b5ed4bb323,
    type: 3}
  m_PrefabInstance: {fileID: 3809440313043766148}
  m_PrefabAsset: {fileID: 0}
